Final Part
…
# Setting data to view total number of NA observations 
all_NA <- videogames %>% filter(is.na(Critic_Score)| is.na(Name)| is.na(Critic_Count)| is.na(Genre)| is.na(User_Score)| is.na(User_Count)| is.na(Developer)| is.na(Rating)| User_Score == "tbd"|Year_of_Release == "N/A")    # 9893 rows with NA 

# Setting data to contain no NA values 
videogames1 <- 
  videogames %>%
  filter(!is.na(Name), !is.na(Platform), !is.na(Year_of_Release), !is.na(Genre), !is.na(Publisher), !is.na(NA_Sales), !is.na(EU_Sales), !is.na(JP_Sales), !is.na(Other_Sales), !is.na(Global_Sales), !is.na(Critic_Score), !is.na(User_Score), User_Score != "tbd", !is.na(Rating), !is.na(Developer), Year_of_Release != "N/A")

# Converting columns to become double due to having numeric values 
videogames1$User_Score <- as.double(videogames1$User_Score)
videogames1$Year_of_Release <- as.double(videogames1$Year_of_Release)
videogames1

## # A tibble: 6,826 x 16
##    Name     Platform Year_of_Release Genre Publisher  NA_Sales EU_Sales JP_Sales
##    <chr>    <chr>              <dbl> <chr> <chr>         <dbl>    <dbl>    <dbl>
##  1 Wii Spo Wii                 2006 Spor Nintendo      41.4     29.0      3.77
##  2 Mario K Wii                 2008 Raci Nintendo      15.7     12.8      3.79
##  3 Wii Spo Wii                 2009 Spor Nintendo      15.6     10.9      3.28
##  4 New Sup DS                  2006 Plat Nintendo      11.3      9.14     6.5 
##  5 Wii Play Wii                 2006 Misc  Nintendo      14.0      9.18     2.93
##  6 New Sup Wii                 2009 Plat Nintendo      14.4      6.94     4.7 
##  7 Mario K DS                  2005 Raci Nintendo       9.71     7.47     4.13
##  8 Wii Fit  Wii                 2007 Spor Nintendo       8.92     8.03     3.6 
##  9 Kinect  X360                2010 Misc  Microsoft    15        4.89     0.24
## 10 Wii Fit Wii                 2009 Spor Nintendo       9.01     8.49     2.53
## #  with 6,816 more rows, and 8 more variables: Other_Sales <dbl>,
## #   Global_Sales <dbl>, Critic_Score <dbl>, Critic_Count <dbl>,
## #   User_Score <dbl>, User_Count <dbl>, Developer <chr>, Rating <chr>
…
